{
  "Actor": {
    "types": [
      "character",
      "npc"
    ],
    "templates": {
      "standard": {
        "attributes": {
          "attackMod": {
            "type": "Number",
            "value": 0
          },
          "ac": {
            "type": "Number",
            "label": "Armor Class",
            "value": 10,
            "base": 10,
            "min": 0
          },
          "pd": {
            "type": "Number",
            "label": "Physical Defense",
            "value": 10,
            "base": 10,
            "min": 0
          },
          "md": {
            "type": "Number",
            "label": "Mental Defense",
            "value": 10,
            "base": 10,
            "min": 0
          },
          "hp": {
            "type": "Number",
            "label": "Hit Points",
            "value": 10,
            "min": 0,
            "max": 10,
            "temp": 0,
            "tempmax": 0,
            "base": 7,
            "automatic": true
          },
          "init": {
            "type": "Number",
            "label": "Initiative Modifier",
            "value": 0
          },
          "level": {
            "type": "Number",
            "label": "Level",
            "value": 1,
            "min": 0,
            "max": 10
          }
        }
      }
    },
    "character": {
      "templates": [
        "standard"
      ],
      "abilities": {
        "str": {
          "type": "Number",
          "label": "Strength",
          "value": 10,
          "min": 3,
          "mod": 0
        },
        "dex": {
          "type": "Number",
          "label": "Dexterity",
          "value": 10,
          "min": 3,
          "mod": 0
        },
        "con": {
          "type": "Number",
          "label": "Constitution",
          "value": 10,
          "min": 3,
          "mod": 0
        },
        "int": {
          "type": "Number",
          "label": "Intelligence",
          "value": 10,
          "min": 3,
          "mod": 0
        },
        "wis": {
          "type": "Number",
          "label": "Wisdom",
          "value": 10,
          "min": 3,
          "mod": 0
        },
        "cha": {
          "type": "Number",
          "label": "Charisma",
          "value": 10,
          "min": 3,
          "mod": 0
        }
      },
      "attributes": {
        "disengage": 11,
        "disengageBonus": 0,
        "recoveries": {
          "type": "Number",
          "label": "Recoveries",
          "value": 8,
          "max": 8,
          "dice": "d8",
          "base": 8,
          "automatic": true
        },
        "saves": {
          "easy": 6,
          "normal": 11,
          "hard": 16,
          "death": 16,
          "deathFails": {
            "value": 0,
            "max": 4,
            "steps": [
              false,
              false,
              false,
              false
            ]
          },
          "lastGasp": 16,
          "lastGaspFails": {
            "value": 0,
            "max": 4,
            "steps": [
              false,
              false,
              false,
              false
            ]
          }
        },
        "weapon": {
          "melee": {
            "type": "String",
            "label": "Melee weapon dice",
            "dice": "d8",
            "value": "d8",
            "shield": false,
            "dualwield": false,
            "twohanded": false
          },
          "ranged": {
            "type": "String",
            "label": "Ranged weapon dice",
            "dice": "d8",
            "value": "d8"
          },
          "jab": {
            "type": "String",
            "label": "JAB dice",
            "dice": "d6",
            "value": "d6"
          },
          "punch": {
            "type": "String",
            "label": "PUNCH dice",
            "dice": "d8",
            "value": "d8"
          },
          "kick": {
            "type": "String",
            "label": "KICK dice",
            "dice": "d10",
            "value": "d10"
          }
        }
      },
      "details": {
        "alignment": {
          "type": "String",
          "label": "Alignment"
        },
        "biography": {
          "type": "String",
          "label": "Biography"
        },
        "class": {
          "type": "String",
          "label": "Class"
        },
        "race": {
          "type": "String",
          "label": "Race"
        },
        "out": {
          "label": "One Unique Thing",
          "type": "String",
          "value": ""
        }
      },
      "backgrounds": {
        "bg1": {
          "name": {
            "type": "String",
            "value": ""
          },
          "bonus": {
            "type": "Number",
            "value": 0
          },
          "isActive": {
            "type": "Boolean",
            "value": 1
          }
        },
        "bg2": {
          "name": {
            "type": "String",
            "value": ""
          },
          "bonus": {
            "type": "Number",
            "value": 0
          },
          "isActive": {
            "type": "Boolean",
            "value": 1
          }
        },
        "bg3": {
          "name": {
            "type": "String",
            "value": ""
          },
          "bonus": {
            "type": "Number",
            "value": 0
          },
          "isActive": {
            "type": "Boolean",
            "value": 1
          }
        },
        "bg4": {
          "name": {
            "type": "String",
            "value": ""
          },
          "bonus": {
            "type": "Number",
            "value": 0
          },
          "isActive": {
            "type": "Boolean",
            "value": 0
          }
        },
        "bg5": {
          "name": {
            "type": "String",
            "value": ""
          },
          "bonus": {
            "type": "Number",
            "value": 0
          },
          "isActive": {
            "type": "Boolean",
            "value": 0
          }
        },
        "bg6": {
          "name": {
            "type": "String",
            "value": ""
          },
          "bonus": {
            "type": "Number",
            "value": 0
          },
          "isActive": {
            "type": "Boolean",
            "value": 0
          }
        },
        "bg7": {
          "name": {
            "type": "String",
            "value": ""
          },
          "bonus": {
            "type": "Number",
            "value": 0
          },
          "isActive": {
            "type": "Boolean",
            "value": 0
          }
        },
        "bg8": {
          "name": {
            "type": "String",
            "value": ""
          },
          "bonus": {
            "type": "Number",
            "value": 0
          },
          "isActive": {
            "type": "Boolean",
            "value": 0
          }
        }
      },
      "icons": {
        "i1": {
          "name": {
            "type": "String",
            "value": ""
          },
          "relationship": {
            "type": "String",
            "value": ""
          },
          "bonus": {
            "type": "Number",
            "value": 0
          },
          "isActive": {
            "type": "Boolean",
            "value": 1
          },
          "results": []
        },
        "i2": {
          "name": {
            "type": "String",
            "value": ""
          },
          "relationship": {
            "type": "String",
            "value": ""
          },
          "bonus": {
            "type": "Number",
            "value": 0
          },
          "isActive": {
            "type": "Boolean",
            "value": 1
          },
          "results": []
        },
        "i3": {
          "name": {
            "type": "String",
            "value": ""
          },
          "relationship": {
            "type": "String",
            "value": ""
          },
          "bonus": {
            "type": "Number",
            "value": 0
          },
          "isActive": {
            "type": "Boolean",
            "value": 1
          },
          "results": []
        },
        "i4": {
          "name": {
            "type": "String",
            "value": ""
          },
          "relationship": {
            "type": "String",
            "value": ""
          },
          "bonus": {
            "type": "Number",
            "value": 0
          },
          "isActive": {
            "type": "Boolean",
            "value": 0
          },
          "results": []
        },
        "i5": {
          "name": {
            "type": "String",
            "value": ""
          },
          "relationship": {
            "type": "String",
            "value": ""
          },
          "bonus": {
            "type": "Number",
            "value": 0
          },
          "isActive": {
            "type": "Boolean",
            "value": 0
          },
          "results": []
        }
      },
      "resources": {
        "perCombat": {
          "momentum": {
            "enabled": false,
            "current": false
          },
          "commandPoints": {
            "enabled": false,
            "current": 0
          },
          "focus": {
            "enabled": false,
            "current": false
          }
        },
        "spendable": {
          "ki": {
            "enabled": false,
            "current": 0,
            "max": 0
          },
          "custom1": {
            "label": "",
            "current": 0,
            "max": 0,
            "enabled": false,
            "rest": "none"
          },
          "custom2": {
            "label": "",
            "current": 0,
            "max": 0,
            "enabled": false,
            "rest": "none"
          },
          "custom3": {
            "label": "",
            "current": 0,
            "max": 0,
            "enabled": false,
            "rest": "none"
          }
        }
      },
      "incrementals": {
        "abilityScoreBonus": false,
        "extraMagicItem": false,
        "feat": false,
        "feature": false,
        "hp": false,
        "iconRelationshipPoint": false,
        "powerSpell1": false,
        "powerSpell2": false,
        "powerSpell3": false,
        "powerSpell4": false,
        "skills": false
      },
      "coins": {
        "platinum": 0,
        "gold": 0,
        "silver": 0,
        "copper": 0
      }
    },
    "npc": {
      "templates": [
        "standard"
      ],
      "details": {
        "role": {
          "value": "",
          "type": "String",
          "label": "Role"
        },
        "size": {
          "value": "Normal",
          "type": "String",
          "label": "Size"
        },
        "type": {
          "value": "",
          "type": "String",
          "label": "Type"
        },
        "resistance": {
          "type": "String",
          "label": "Resistance"
        },
        "vulnerability": {
          "type": "String",
          "label": "Vulnerability"
        }
      }
    }
  },
  "Item": {
    "types": [
      "power",
      "trait",
      "action",
      "nastierSpecial",
      "tool",
      "loot",
      "equipment"
    ],
    "templates": {
      "standard": {
        "name": {
          "type": "String",
          "label": "Name"
        },
        "description": {
          "type": "String",
          "label": "Description"
        }
      },
      "spendable": {
        "quantity": {
          "type": "Number",
          "label": "Quantity",
          "value": 0
        },
        "price": {
          "type": "Number",
          "label": "Price",
          "value": 0
        }
      },
      "usable": {
        "powerUsage": {
          "type": "String",
          "label": "Power Usage",
          "value": ""
        },
        "recharge": {
          "type": "Number",
          "label": "Recharge",
          "value": 0
        },
        "rechargeAttempts": {
          "type": "Number",
          "label": "Number of Recharges Attempted",
          "value": 0
        },
        "quantity": {
          "type": "Number",
          "label": "Uses",
          "value": 1
        },
        "maxQuantity": {
          "type": "Number",
          "label": "Max Uses",
          "value": 1
        }
      }
    },
    "power": {
      "templates": [
        "standard",
        "usable"
      ],
      "group": {
        "type": "String",
        "label": "Group",
        "value": ""
      },
      "powerSource": {
        "type": "String",
        "label": "Power Source",
        "value": ""
      },
      "powerSourceName": {
        "type": "String",
        "label": "Power Source Name",
        "value": ""
      },
      "powerType": {
        "type": "String",
        "label": "Power Type",
        "value": ""
      },
      "powerLevel": {
        "type": "Number",
        "label": "Level",
        "value": ""
      },
      "actionType": {
        "type": "String",
        "label": "Action",
        "value": ""
      },
      "range": {
        "type": "String",
        "label": "Range",
        "value": ""
      },
      "trigger": {
        "type": "String",
        "label": "Trigger",
        "value": ""
      },
      "target": {
        "type": "String",
        "label": "Target",
        "value": ""
      },
      "always": {
        "type": "String",
        "label": "Always",
        "value": ""
      },
      "attack": {
        "type": "String",
        "label": "Attack",
        "value": ""
      },
      "hit": {
        "type": "String",
        "label": "Hit",
        "value": ""
      },
      "hitEven": {
        "type": "String",
        "label": "Natural Even Hit",
        "value": ""
      },
      "hitOdd": {
        "type": "String",
        "label": "Natural Odd Hit",
        "value": ""
      },
      "crit": {
        "type": "String",
        "label": "Crit",
        "value": ""
      },
      "miss": {
        "type": "String",
        "label": "Miss",
        "value": ""
      },
      "missEven": {
        "type": "String",
        "label": "Even Miss",
        "value": ""
      },
      "missOdd": {
        "type": "String",
        "label": "Odd Miss",
        "value": ""
      },
      "cost": {
        "type": "String",
        "label": "Cost",
        "value": ""
      },
      "castBroadEffect": {
        "type": "String",
        "label": "Cast for Broad Effect",
        "value": ""
      },
      "castPower": {
        "type": "String",
        "label": "Cast for Power",
        "value": ""
      },
      "sustainedEffect": {
        "type": "String",
        "label": "Opening and Sustained Effect",
        "value": ""
      },
      "finalVerse": {
        "type": "String",
        "label": "Final Verse",
        "value": ""
      },
      "special": {
        "type": "String",
        "label": "Special",
        "value": ""
      },
      "effect": {
        "type": "String",
        "label": "Effect",
        "value": ""
      },
      "spellLevel3": {
        "type": "String",
        "label": "3rd Level Spell",
        "value": ""
      },
      "spellLevel5": {
        "type": "String",
        "label": "5th Level Spell",
        "value": ""
      },
      "spellLevel7": {
        "type": "String",
        "label": "7th Level Spell",
        "value": ""
      },
      "spellLevel9": {
        "type": "String",
        "label": "9th Level Spell",
        "value": ""
      },
      "spellChain": {
        "type": "String",
        "label": "Chain Spell",
        "value": ""
      },
      "breathWeapon": {
        "type": "String",
        "label": "Breath Weapon",
        "value": ""
      },
      "sustainOn": {
        "type": "Number",
        "label": "Sustain On",
        "value": ""
      },
      "feats": {
        "adventurer": {
          "description": {
            "type": "String",
            "label": "Adventurer Feat"
          },
          "isActive": {
            "type": "Boolean",
            "label": "Active"
          }
        },
        "champion": {
          "description": {
            "type": "String",
            "label": "Champion Feat"
          },
          "isActive": {
            "type": "Boolean",
            "label": "Active"
          }
        },
        "epic": {
          "description": {
            "type": "String",
            "label": "Epic Feat"
          },
          "isActive": {
            "type": "Boolean",
            "label": "Active"
          }
        }
      }
    },
    "trait": {
      "templates": [
        "standard"
      ],
      "group": {
        "type": "String",
        "label": "Group",
        "value": ""
      }
    },
    "action": {
      "templates": [
        "standard"
      ],
      "group": {
        "type": "String",
        "label": "Group",
        "value": ""
      },
      "attack": {
        "type": "String",
        "label": "Attack Roll"
      },
      "hit": {
        "type": "String",
        "label": "Hit"
      },
      "hit1": {
        "type": "String",
        "label": "Hit"
      },
      "hit2": {
        "type": "String",
        "label": "Hit"
      },
      "hit3": {
        "type": "String",
        "label": "Hit"
      },
      "hit4": {
        "type": "String",
        "label": "Hit"
      },
      "hit5": {
        "type": "String",
        "label": "Hit"
      },
      "miss": {
        "type": "String",
        "label": "Miss"
      }
    },
    "nastierSpecial": {
      "templates": [
        "standard"
      ],
      "group": {
        "type": "String",
        "label": "Group",
        "value": ""
      }
    },
    "tool": {
      "templates": [
        "standard",
        "spendable"
      ]
    },
    "loot": {
      "templates": [
        "standard",
        "spendable"
      ]
    },
    "equipment": {
      "templates": [
        "standard",
        "usable"
      ],
      "properties": {},
      "attributes": {
        "attack": {
          "melee": {
            "bonus": 0
          },
          "ranged": {
            "bonus": 0
          },
          "divine": {
            "bonus": 0
          },
          "arcane": {
            "bonus": 0
          }
        },
        "ac": {
          "bonus": 0
        },
        "md": {
          "bonus": 0
        },
        "pd": {
          "bonus": 0
        },
        "hp": {
          "bonus": 0
        },
        "recoveries": {
          "bonus": 0
        },
        "save": {
          "bonus": 0
        },
        "disengage": {
          "bonus": 0
        }
      },
      "isActive": true
    }
  }
}